FOMC Web scrapping
…
#Adding finacial words count to data frame
tok_participants_view_fin_count <- tok_participants_view %>%
  mutate(financial_word = if_else(str_detect(word, financial_words), 1, 0),
         financial_bigram = case_when(
           str_detect(word, "financial") & str_detect(lead(word, 1), "market|condition") ~ 1,
           str_detect(word, "equity|stock") & str_detect(lead(word, 1), "price") ~ 1,
           str_detect(word, "market") & str_detect(lead(word, 1), "participants") ~ 1,
           str_detect(word, "money") & str_detect(lead(word, 1), "market") ~ 1,
           TRUE ~ 0),
         financial_fin = if_else(financial_word == 1 | financial_bigram == 1, 1, 0)
         )
head(tok_participants_view_fin_count, n=1000)

## # A tibble: 1,000 x 5
##    date       word         financial_word financial_bigram financial_fin
##    <date>     <chr>                 <dbl>            <dbl>         <dbl>
##  1 2020-01-29 participants              0                0             0
##  2 2020-01-29 agreed                    0                0             0
##  3 2020-01-29 labor                     0                0             0
##  4 2020-01-29 market                    0                0             0
##  5 2020-01-29 remained                  0                0             0
##  6 2020-01-29 strong                    0                0             0
##  7 2020-01-29 intermeeting              0                0             0
##  8 2020-01-29 period                    0                0             0
##  9 2020-01-29 economic                  0                0             0
## 10 2020-01-29 activity                  0                0             0
## # ... with 990 more rows
…
#Covid-19 related words that we want to analyze upon
covid19_words <- paste("coronavirus", "covid19", "covid-19",sep = "|")
covid19_words

## [1] "coronavirus|covid19|covid-19"

#Adding covid-19 related word counts to the data frame.
tok_participants_view_c19_count <- tok_participants_view %>%
  mutate(covid19_word = if_else(str_detect(word, covid19_words), 1, 0)
         )
head(tok_participants_view_c19_count, n=100)

## # A tibble: 100 x 3
##    date       word         covid19_word
##    <date>     <chr>               <dbl>
##  1 2020-01-29 participants            0
##  2 2020-01-29 agreed                  0
##  3 2020-01-29 labor                   0
##  4 2020-01-29 market                  0
##  5 2020-01-29 remained                0
##  6 2020-01-29 strong                  0
##  7 2020-01-29 intermeeting            0
##  8 2020-01-29 period                  0
##  9 2020-01-29 economic                0
## 10 2020-01-29 activity                0
## # ... with 90 more rows
…
## [1] "unemployment"

#Adding covid-19 related word counts to the data frame.
tok_participants_view_ur_count <- tok_participants_view %>%
  mutate(ur_word = if_else(str_detect(word, ur_words), 1, 0),
         ur_bigram = case_when(
           str_detect(word, "unemployment") & str_detect(lead(word, 1), "rate") ~ 1,
           TRUE ~ 0),
         ur_rate = if_else(ur_word == 1 | ur_bigram == 1, 1, 0)
         )
head(tok_participants_view_ur_count, n=100)

## # A tibble: 100 x 5
##    date       word         ur_word ur_bigram ur_rate
##    <date>     <chr>          <dbl>     <dbl>   <dbl>
##  1 2020-01-29 participants       0         0       0
##  2 2020-01-29 agreed             0         0       0
##  3 2020-01-29 labor              0         0       0
##  4 2020-01-29 market             0         0       0
##  5 2020-01-29 remained           0         0       0
##  6 2020-01-29 strong             0         0       0
##  7 2020-01-29 intermeeting       0         0       0
##  8 2020-01-29 period             0         0       0
##  9 2020-01-29 economic           0         0       0
## 10 2020-01-29 activity           0         0       0
## # ... with 90 more rows
…
tok_participants_view_top_50

## # A tibble: 50 x 2
##    word          n
##    <chr>     <int>
##  1 inflation  1261
##  2 economic    867
##  3 rate        735
##  4 labor       657
##  5 market      654
##  6 policy      614
##  7 growth      471
##  8 recent      465
##  9 noted       461
## 10 outlook     457
## # ... with 40 more rows
…
tok_participants_view_top_100

## # A tibble: 100 x 2
##    word          n
##    <chr>     <int>
##  1 inflation  1261
##  2 economic    867
##  3 rate        735
##  4 labor       657
##  5 market      654
##  6 policy      614
##  7 growth      471
##  8 recent      465
##  9 noted       461
## 10 outlook     457
## # ... with 90 more rows

#bigram Word count from 2015 till date
tok_participants_view_bi_top <- fomc_mom_df %>% #filter(word!="participants") %>%
  unnest_tokens(bigram, participants_view, token = "ngrams", n=2) %>%
  separate(bigram, c("word1","word2"), sep = " ") %>%
  anti_join(stop_words, by = c("word1" = "word")) %>%
  anti_join(stop_words, by = c("word2" = "word")) %>%
  filter(word1!="participants") %>%
  filter(word2!="participants") %>%
  count(word1, word2, sort = TRUE) 

#fomc_mom_df$participants_view
tok_participants_view_bi_top

## # A tibble: 7,314 x 3
##    word1     word2            n
##    <chr>     <chr>        <int>
##  1 labor     market         437
##  2 federal   funds          299
##  3 funds     rate           293
##  4 monetary  policy         252
##  5 economic  activity       247
##  6 market    conditions     190
##  7 inflation expectations   184
##  8 target    range          174
##  9 economic  outlook        164
## 10 economic  growth         152
## # ... with 7,304 more rows
…
